module Helldivers2Tools

go 1.20

require (
	github.com/InfluxCommunity/influxdb3-go v0.6.0
	github.com/Masterminds/squirrel v1.5.4
	github.com/bwmarrin/discordgo v0.27.1
	github.com/goccy/go-json v0.10.2
	github.com/gofiber/fiber/v3 v3.0.0-20240322111812-5e8df0a348be
	github.com/lib/pq v1.10.9
	github.com/mattn/go-sqlite3 v1.14.22
	github.com/redis/go-redis/v9 v9.5.1
)

require (
	github.com/andybalholm/brotli v1.1.0 // indirect
	github.com/apache/arrow/go/v14 v14.0.2 // indirect
	github.com/cespare/xxhash/v2 v2.2.0 // indirect
	github.com/dgryski/go-rendezvous v0.0.0-20200823014737-9f7001d12a5f // indirect
	github.com/gofiber/utils/v2 v2.0.0-beta.3 // indirect
	github.com/golang/protobuf v1.5.3 // indirect
	github.com/google/flatbuffers v23.5.26+incompatible // indirect
	github.com/google/uuid v1.6.0 // indirect
	github.com/gorilla/websocket v1.4.2 // indirect
	github.com/influxdata/line-protocol/v2 v2.2.1 // indirect
	github.com/klauspost/compress v1.17.7 // indirect
	github.com/klauspost/cpuid/v2 v2.2.5 // indirect
	github.com/lann/builder v0.0.0-20180802200727-47ae307949d0 // indirect
	github.com/lann/ps v0.0.0-20150810152359-62de8c46ede0 // indirect
	github.com/mattn/go-colorable v0.1.13 // indirect
	github.com/mattn/go-isatty v0.0.20 // indirect
	github.com/pierrec/lz4/v4 v4.1.18 // indirect
	github.com/valyala/bytebufferpool v1.0.0 // indirect
	github.com/valyala/fasthttp v1.52.0 // indirect
	github.com/valyala/tcplisten v1.0.0 // indirect
	github.com/zeebo/xxh3 v1.0.2 // indirect
	golang.org/x/crypto v0.21.0 // indirect
	golang.org/x/mod v0.13.0 // indirect
	golang.org/x/net v0.21.0 // indirect
	golang.org/x/sys v0.18.0 // indirect
	golang.org/x/text v0.14.0 // indirect
	golang.org/x/tools v0.14.0 // indirect
	golang.org/x/xerrors v0.0.0-20220907171357-04be3eba64a2 // indirect
	google.golang.org/genproto/googleapis/rpc v0.0.0-20240123012728-ef4313101c80 // indirect
	google.golang.org/grpc v1.62.0 // indirect
	google.golang.org/protobuf v1.33.0 // indirect
)
